^C:\USERS\TOMMY\DOCUMENTS\VISUAL STUDIO 2010\PROJECTS\STARFIELD\STARFIELD\MAIN.CPP
/c /Zi /nologo /W3 /WX- /O2 /Oi /Oy- /GL /D _MBCS /Gm- /EHsc /MD /GS /Gy /fp:precise /Zc:wchar_t /Zc:forScope /Fo"Release\\" /Fd"Release\vc100.pdb" /Gd /TP /analyze- /errorReport:prompt C:\USERS\TOMMY\DOCUMENTS\VISUAL STUDIO 2010\PROJECTS\STARFIELD\STARFIELD\MAIN.CPP
^C:\USERS\TOMMY\DOCUMENTS\VISUAL STUDIO 2010\PROJECTS\STARFIELD\STARFIELD\STARFIELD.CPP
/c /Zi /nologo /W3 /WX- /O2 /Oi /Oy- /GL /D _MBCS /Gm- /EHsc /MD /GS /Gy /fp:precise /Zc:wchar_t /Zc:forScope /Fo"Release\\" /Fd"Release\vc100.pdb" /Gd /TP /analyze- /errorReport:prompt C:\USERS\TOMMY\DOCUMENTS\VISUAL STUDIO 2010\PROJECTS\STARFIELD\STARFIELD\STARFIELD.CPP
