^C:\USERS\TOMMY\DOCUMENTS\VISUAL STUDIO 2010\PROJECTS\STARFIELD\STARFIELD\RELEASE\STARFIELD.EXE.INTERMEDIATE.MANIFEST
C:\WINDOWS\MICROSOFT.NET\FRAMEWORK\V2.0.50727\MSCORWKS.DLL
C:\WINDOWS\MICROSOFT.NET\FRAMEWORK\V4.0.30319\CLR.DLL
C:\PROGRAM FILES (X86)\MICROSOFT SDKS\WINDOWS\V7.0A\BIN\MT.EXE.CONFIG
C:\USERS\TOMMY\DOCUMENTS\VISUAL STUDIO 2010\PROJECTS\STARFIELD\RELEASE\STARFIELD.EXE
C:\WINDOWS\REGISTRATION\R000000000009.CLB
C:\WINDOWS\MICROSOFT.NET\FRAMEWORK\V1.1.4322\MSCORWKS.DLL
